…
Looking for Landsat scenes covering montblanc... 18 scene(s) found, including uninteresting ones... 2 excluding them.
Looking for Landsat scenes covering monterosa... 17 scene(s) found, including uninteresting ones... 1 excluding them.
Looking for Landsat scenes covering monviso... 16 scene(s) found, including uninteresting ones... 1 excluding them.
Looking for Landsat scenes covering murtel... 31 scene(s) found, including uninteresting ones... 0 excluding them.
Looking for Landsat scenes covering pelmo... 29 scene(s) found, including uninteresting ones... 0 excluding them.
Looking for Landsat scenes covering rocciamelone... 33 scene(s) found, including uninteresting ones... 1 excluding them.
Looking for Landsat scenes covering schilthorn... 33 scene(s) found, including uninteresting ones... 1 excluding them.
Looking for Landsat scenes covering tresignori... 16 scene(s) found, including uninteresting ones... 0 excluding them.
Looking for Landsat scenes covering valbondione... 16 scene(s) found, including uninteresting ones... 0 excluding them.
No new Landsat scenes to process.
Writing Landsat 8/9 tile info file...
Finished at 2024-06-28 21:33:00 +0200
ng Landsat 8/9 tile info file...
Finished at 2024-06-28 21:33:00 +0200
# A tibble: 186 × 3
   file                                     status   staged
   <chr>                                    <chr>    <lgl> 
 1 imagery/bernina/v1/2024-06-24_s2.tif     modified TRUE  
 2 imagery/bernina/v2/2024-06-24_s2_pan.tif modified TRUE  
 3 imagery/bernina/v3/2024-06-24_s2.jpg     modified TRUE  
 4 imagery/bernina/v4/2024-06-24_s2.jpg     modified TRUE  
 5 imagery/bishorn/v1/2024-06-22_s2.tif     modified TRUE  
 6 imagery/bishorn/v1/2024-06-24_s2.tif     modified TRUE  
 7 imagery/bishorn/v1/2024-06-27_ls.tif     modified TRUE  
 8 imagery/bishorn/v1/2024-06-27_s2.tif     modified TRUE  
 9 imagery/bishorn/v2/2024-06-22_s2_pan.tif modified TRUE  
10 imagery/bishorn/v2/2024-06-24_s2_pan.tif modified TRUE  
# ℹ 176 more rows
# ℹ Use `print(n = ...)` to see more rows
…
